1 10 20
100 200 125
201 210 89
900 1000 174
1000 900 174
1 1 1
12 1 20
1345 13456 276
56 57 33
12 12 10
3000 100 217
999998 999999 259
78965 74639 351
10 1 20
67 1000 179
76 12 116
789 789 29
456 47890 324
2348 3498 217
7777 7777 84
0 0 1
10 0 20
999999 999999 259
6996 78724 351
1000 2000 182
234598 234985 337
2500 3000 217
2000 3500 217
2000 30000 308
2346 72456 340
11111 11111 56
12334 14789 276
88888 7777 351
10 3000 217
3000 10 217
65 56 108
19 20 21
0 999999 525
987 789 179
1000 5000 238
18 11 21
24 50 112
50 24 112
67 50 113
36 50 110
20 19 21
2 19 21
508 1500 182
769467 836598 468
50000 60000 340
17 14 18
214 50 125
25050 7950 282
161718 192021 365
1000 0 179
25000 45000 324
9000 0 262
10 7000 262
12000 45789 324
1234 23456 279
18002 738255 509
118 21319 279
429314 999999 525
67 0 113
12500 50000 324
678 876 179
6000 10000 262
567 567 62
12345 12344 113
19999 29999 308
444444 555555 470
8876 9876 260
1000 10000 262
2000 54000 340
20001 30000 308
0 800000 509
60000 6000 340
70000 54678 335
15 0 20
7865 34256 311
90 800 171
8778 7878 252
5436 67789 340
12345 45678 324
10000 50000 324
56000 700000 509
600000 43567 470
123456 98765 354
780000 65400 509
0 54000 340
980000 10 525
545454 565769 452
23 10000 262
12000 25000 282
43890 874000 525
0 1 1
25000 5 282
100000 57000 351
600000 765 470
689 689 127
56789 56789 61
657898 657898 155
67 9 113
120 3 119
1 99999 351
