1 10 20
100 200 125
10000 30000 308
1 2 2
999998 999999 259
78000 100000 338
1 1 1
123 123 47
123 124 109
228306 357208 443
839324 923667 476
815667 876170 525
995440 681738 525
22590 780823 509
399232 453378 449
94153 810992 509
299954 804044 509
258891 557226 470
503814 218824 449
631999 71627 509
174341 818719 509
348073 129317 443
845327 939095 476
487616 316614 449
521910 195038 470
15858 347615 443
810354 888838 525
791851 909281 525
817093 29458 509
667863 332832 509
254001 17733 443
463489 518576 470
731637 234622 509
44978 743648 509
766211 828449 468
700585 675051 442
129841 946003 525
375641 845143 525
639682 550777 509
716782 375298 509
420127 391438 449
720138 507613 509
342794 707798 509
42888 401959 443
394549 275254 441
79454 861472 525
515369 623108 452
394000 306236 441
20063 587159 470
41045 257002 443
86633 871762 525
447467 907766 525
528976 782355 509
162306 547488 470
40770 892737 525
509647 291285 449
633282 890059 525
960385 758847 525
202115 697212 509
93457 316272 443
308259 179747 443
359225 676002 509
248427 41361 443
63407 626105 470
145539 152052 370
340831 611364 470
966372 279090 525
924955 285904 525
348502 377584 423
321126 302259 384
864498 644661 525
963142 323281 525
452287 945856 525
927635 517448 525
700461 203691 509
192884 751827 509
185622 13717 383
498465 250203 449
296906 171216 443
973423 518971 525
853736 43420 525
390261 754243 509
588357 414995 470
779854 61724 509
182053 328349 443
700354 139016 509
411279 362067 449
935855 953091 507
606380 569843 434
660314 376108 509
159166 123030 383
955843 101375 525
831347 669132 504
675217 263024 509
239423 605794 470
10202 119474 354
670867 1254 509
983649 513032 525
716245 227757 509
127498 348903 443
327894 94999 443
123 2354 183
