.................
----------------------------------------------------------------------
Ran 17 tests in 4.859s

OK
Name             Stmts   Miss Branch BrPart  Cover   Missing
------------------------------------------------------------
Collatz.py          41      0     14      0   100%
TestCollatz.py      72      0      0      0   100%
------------------------------------------------------------
TOTAL              113      0     14      0   100%
