824780 800603 450
786223 571567 509
746157 845606 525
791505 255763 509
381153 426225 449
411829 749169 509
313960 825883 509
702058 906177 525
824385 898323 525
132973 678125 509
55694 107545 354
218471 214617 386
880661 440462 525
98111 95977 297
862804 340212 525
92221 206287 383
238605 738050 509
398723 562275 470
641324 233414 509
366347 990235 525
196237 287382 443
459354 35177 449
233749 192607 443
298915 572358 470
526617 96387 470
49464 589065 470
679228 669352 385
680157 852948 525
497416 941963 525
246656 993019 525
423993 497789 444
474149 616807 470
107425 955562 525
399406 830691 509
133973 998826 525
779939 988623 525
852370 220492 525
994308 319469 525
578061 678669 509
310234 696611 509
457454 445384 387
434975 331282 449
973342 340583 525
800097 230979 509
50616 309067 443
506383 573823 470
462651 260478 449
468768 418725 444
113631 112352 305
387011 202082 443
370291 138922 443
135952 977784 525
689739 308565 509
345556 79137 443
575207 517639 452
563093 666164 509
519289 91186 470
958188 479795 525
936406 102862 525
210975 833237 509
353871 5516 443
406843 46117 443
56837 75099 335
832843 77937 509
634615 219963 509
507251 830087 509
122358 334698 443
322326 21939 443
339334 375139 441
308270 178573 443
55681 51465 340
306579 826880 509
222055 444197 449
777415 181813 509
662455 737665 504
466079 109822 449
243548 31148 443
108974 615004 470
245640 816777 509
150008 497660 449
33583 843521 525
750625 903888 525
156098 622562 470
169078 554982 470
393053 87887 443
272289 823969 509
526106 128268 470
377647 941801 525
713122 209696 509
638401 182970 509
596194 747049 509
910018 287810 525
849053 970235 507
231561 722777 509
499693 291019 449
675144 153083 509
925872 211529 525
122700 699570 509
23281 405888 443
949507 318929 525
780486 829666 468
416993 654532 509
364132 196820 443
254303 620036 470
892503 969881 507
325455 379098 441
676286 703538 442
329178 270728 389
697197 425677 509
50891 602973 470
725328 214142 509
995830 407332 525
436338 455171 400
924329 454141 525
324742 127747 443
517939 539941 439
869508 181416 525
626070 721856 509
342788 357903 441
249326 483410 449
893078 948812 507
418619 300280 449
232081 242227 381
804469 369325 509
496365 576623 470
711672 590263 509
544671 283377 470
196592 598455 470
682258 705232 504
729959 657902 504
61229 723395 509
781656 214150 509
429760 473036 444
95995 281654 443
898539 305385 525
367384 982606 525
21351 421608 449
156685 881765 525
920632 362226 525
45248 563447 470
524055 300692 470
426257 532421 470
964721 813115 525
116962 311305 443
8103 890004 525
609924 317280 470
949289 208045 525
981273 642181 525
219427 500589 449
78889 887002 525
736634 494851 509
735054 596616 509
266405 956186 525
851731 191857 525
274827 94026 443
755055 202203 509
582170 428668 470
334320 806145 509
403138 477831 449
974483 662666 525
246715 88734 443
557397 149884 470
36877 464531 449
481552 276919 449
684516 894052 525
969466 950514 414
503794 590364 470
20987 463901 449
322340 651621 509
773486 190406 509
944010 294655 525
773194 731829 468
744858 898688 525
615615 449883 470
670913 27499 509
778201 452524 509
934463 573637 525
676300 362252 509
246559 927659 525
401824 42609 443
562377 372169 470
5562 466843 449
17342 658892 509
471621 381454 449
771965 871645 525
478288 446823 444
403812 432536 449
510737 722886 509
282 134248 354
530827 674350 509
893850 638538 525
979696 145530 525
934274 261810 525
31300 520452 470
405640 467979 449
960042 930441 507
1 999999 525
999999 1 525
10 10 7
889999 889999 119
